"서비스구분","서비스ID","대분류명","소분류명","서비스상태","서비스명","결제방법","장소명","서비스대상","바로가기URL","장소X좌표","장소Y좌표","서비스개시시작일시","서비스개시종료일시","접수시작일시","접수종료일시","지역명"
"자체","S190102091219504248","시설대관","강당","접수중","삼성2문화센터 7층 강당 대관(유료)","유료(요금안내문의)","삼성2문화센터","제한없음","http://yeyak.seoul.go.kr/reservation/view.web?rsvsvcid=S190102091219504248","","","2020-01-01 00:00:00.0","2020-12-31 00:00:00.0","2020-01-01 09:00:00.0","2020-12-31 18:00:00.0","강남구"
"자체","S180517152248485166","시설대관","강당","접수종료","개포2문화센터","유료(요금안내문의)","개포2문화센터","제한없음","http://yeyak.seoul.go.kr/reservation/view.web?rsvsvcid=S180517152248485166","","","2018-05-17 00:00:00.0","2028-12-31 00:00:00.0","2018-05-17 08:00:00.0","2018-12-31 19:00:00.0","강남구"
"자체","S200207095957002085","시설대관","강당","접수중","개포2문화센터","유료(요금안내문의)","개포2문화센터","성인","http://yeyak.seoul.go.kr/reservation/view.web?rsvsvcid=S200207095957002085","","","2020-01-02 00:00:00.0","2020-12-31 00:00:00.0","2020-01-02 09:00:00.0","2020-12-31 18:00:00.0","강남구"
"자체","S200220132027127445","시설대관","강당","접수중","대치4문화센터 5층 강당 대관(유료)","유료(요금안내문의)","대치4문화센터","제한없음","http://yeyak.seoul.go.kr/reservation/view.web?rsvsvcid=S200220132027127445","37.4997288383","127.0578473914","2020-01-02 00:00:00.0","2020-12-28 00:00:00.0","2020-01-02 06:00:00.0","2020-12-28 18:00:00.0","강남구"
"자체","S200128082400584217","시설대관","강당","접수중","논현1문화센터 대강당","유료(요금안내문의)","강남구논현1동주민센터4층문화센터","제한없음","http://yeyak.seoul.go.kr/reservation/view.web?rsvsvcid=S200128082400584217","","","2020-01-01 00:00:00.0","2020-12-31 00:00:00.0","2020-01-01 09:00:00.0","2020-12-31 18:00:00.0","강남구"
"자체","S180604102910393294","시설대관","강의실","접수종료","강남구 도곡2문화센터 취미교실","유료","도곡2문화센터","제한없음","http://yeyak.seoul.go.kr/reservation/view.web?rsvsvcid=S180604102910393294","","","2018-06-01 00:00:00.0","2020-12-31 00:00:00.0","2018-06-01 00:00:00.0","2018-12-31 23:59:00.0","강남구"
"자체","S180516114302490884","시설대관","강당","접수종료","세곡문화센터 3층 강당","유료(요금안내문의)","세곡문화센터","제한없음","http://yeyak.seoul.go.kr/reservation/view.web?rsvsvcid=S180516114302490884","","","2020-01-01 00:00:00.0","2020-12-31 00:00:00.0","2020-01-01 09:00:00.0","2020-12-31 18:00:00.0","강남구"
"자체","S180524104847210783","시설대관","다목적실","접수종료","세곡문화센터 3층 체육교실","유료(요금안내문의)","세곡문화센터","제한없음","http://yeyak.seoul.go.kr/reservation/view.web?rsvsvcid=S180524104847210783","","","2020-01-01 00:00:00.0","2020-12-31 00:00:00.0","2020-01-01 09:00:00.0","2020-12-31 18:00:00.0","강남구"
"자체","S190108092928475570","시설대관","강당","접수중","논현2문화센터 ","유료(요금안내문의)","강남구 논현2문화센터 대강당","제한없음","http://yeyak.seoul.go.kr/reservation/view.web?rsvsvcid=S190108092928475570","","","2020-01-01 00:00:00.0","2020-12-31 00:00:00.0","2020-01-01 08:00:00.0","2020-12-31 18:00:00.0","강남구"
"자체","S190121141027951273","시설대관","회의실","접수중","개포4동 주민센터 2층 소회의실","유료(요금안내문의)","강남구개포4동주민센터>2층소회의실","제한없음","http://yeyak.seoul.go.kr/reservation/view.web?rsvsvcid=S190121141027951273","","","2019-01-21 00:00:00.0","2020-12-31 00:00:00.0","2019-01-21 09:00:00.0","2020-12-31 18:00:00.0","강남구"
"자체","S190121144143492683","시설대관","강당","접수중","개포4동주민센터 3층대강당","유료(요금안내문의)","강남구개포4동주민센터","제한없음","http://yeyak.seoul.go.kr/reservation/view.web?rsvsvcid=S190121144143492683","37.4788211208","127.0516583213","2019-01-21 00:00:00.0","2020-12-31 00:00:00.0","2019-01-21 09:00:00.0","2020-12-31 18:00:00.0","강남구"
"자체","S200106194107344338","시설대관","전시실","접수중","강남시니어플라자 SP갤러리","유료","강남시니어플라자 SP갤러리","제한없음","http://yeyak.seoul.go.kr/reservation/view.web?rsvsvcid=S200106194107344338","37.5097867111","127.0432194464","2020-01-06 00:00:00.0","2020-12-31 00:00:00.0","2020-01-06 09:00:00.0","2020-12-31 18:00:00.0","강남구"
"자체","S180720175633845737","시설대관","전시실","접수중","강남구민회관 전시실","유료(요금안내문의)","강남구민회관","제한없음","http://yeyak.seoul.go.kr/reservation/view.web?rsvsvcid=S180720175633845737","37.4938869966","127.0642703746","2018-06-01 00:00:00.0","2025-12-31 00:00:00.0","2018-06-01 09:00:00.0","2025-12-31 18:00:00.0","강남구"
"자체","S200107082909719310","시설대관","강당","접수종료","삼성1문화센터7층대강당","유료","삼성1문화센터","제한없음","http://yeyak.seoul.go.kr/reservation/view.web?rsvsvcid=S200107082909719310","","","2020-01-07 00:00:00.0","2020-12-31 00:00:00.0","2020-01-07 07:00:00.0","2020-01-07 21:00:00.0","강남구"
"자체","S200129143649650969","시설대관","회의실","접수중","개포2동주민센터2층회의실","유료","개포2동주민센터2층회의실","제한없음(관내주민 및 단체)","http://yeyak.seoul.go.kr/reservation/view.web?rsvsvcid=S200129143649650969","37.4897829004","127.069074773","2020-09-01 00:00:00.0","2020-12-31 00:00:00.0","2020-09-01 09:00:00.0","2020-12-24 17:00:00.0","강남구"
"자체","S180515170447730936","시설대관","회의실","접수중","대치4동주민센터 5층회의실","무료","대치4동주민센터 5층 회의실","제한없음","http://yeyak.seoul.go.kr/reservation/view.web?rsvsvcid=S180515170447730936","37.4997288383","127.0578473914","2020-01-01 00:00:00.0","2020-12-31 00:00:00.0","2020-01-01 09:00:00.0","2020-12-31 18:00:00.0","강남구"
"자체","S180518163908917679","시설대관","강의실","예약일시중지","강남구 역삼1문화센터 문화교실","유료(요금안내문의)","역삼1문화센터","제한없음","http://yeyak.seoul.go.kr/reservation/view.web?rsvsvcid=S180518163908917679","","","2020-01-01 00:00:00.0","2020-12-31 00:00:00.0","2020-01-01 09:00:00.0","2020-12-31 18:00:00.0","강남구"
"자체","S140304140705317706","시설대관","기타","접수중","강남구 일원1동주민센터 3층강당","유료","일원1동주민센터","제한없음","http://yeyak.seoul.go.kr/reservation/view.web?rsvsvcid=S140304140705317706","","","2018-01-01 00:00:00.0","2020-12-31 00:00:00.0","2018-05-15 09:00:00.0","2020-12-31 18:00:00.0","강남구"
"자체","S140304141714553243","시설대관","기타","접수중","강남구 일원1동주민센터 2층 강의실","유료","일원1동주민센터","성인","http://yeyak.seoul.go.kr/reservation/view.web?rsvsvcid=S140304141714553243","","","2018-01-01 00:00:00.0","2020-12-31 00:00:00.0","2018-05-15 09:00:00.0","2020-12-31 18:00:00.0","강남구"
"자체","S180705131349386011","시설대관","다목적실","접수중","다목적실","유료(요금안내문의)","도곡1문화센터","제한없음","http://yeyak.seoul.go.kr/reservation/view.web?rsvsvcid=S180705131349386011","","","2018-07-05 00:00:00.0","2022-07-31 00:00:00.0","2018-07-05 09:00:00.0","2022-07-31 18:00:00.0","강남구"
"자체","S180601172057677578","시설대관","강당","접수중","강남구민회관 공연장","유료(요금안내문의)"," 강남구민회관 공연장","제한없음","http://yeyak.seoul.go.kr/reservation/view.web?rsvsvcid=S180601172057677578","37.4938869966","127.0642703746","2018-06-01 00:00:00.0","2025-12-31 00:00:00.0","2018-06-01 00:00:00.0","2025-12-31 00:00:00.0","강남구"