"서비스구분","서비스ID","대분류명","소분류명","서비스상태","서비스명","결제방법","장소명","서비스대상","바로가기URL","장소X좌표","장소Y좌표","서비스개시시작일시","서비스개시종료일시","접수시작일시","접수종료일시","지역명"
"자체","S200108204255910278","시설대관","다목적실","접수중","성북구 성북동 자치회관 - 5층 다목적실","유료(요금안내문의)","성북동 자치회관-5층다목적실","제한없음","http://yeyak.seoul.go.kr/reservation/view.web?rsvsvcid=S200108204255910278","","","2020-01-01 00:00:00.0","2020-12-31 00:00:00.0","2020-01-09 09:00:00.0","2020-12-26 00:00:00.0","성북구"
"자체","S200108205456419477","시설대관","강당","접수중","성북구 성북동 자치회관 - 5층 대강당","유료(요금안내문의)","성북동자치회관-5층대강당","제한없음","http://yeyak.seoul.go.kr/reservation/view.web?rsvsvcid=S200108205456419477","","","2020-01-09 00:00:00.0","2020-12-31 00:00:00.0","2020-01-09 09:00:00.0","2020-12-31 18:00:00.0","성북구"
"자체","S200105095831023248","시설대관","기타","접수중","동선동 주민센터 - 3층 대강당","유료(요금안내문의)","동선동 주민센터","제한없음","http://yeyak.seoul.go.kr/reservation/view.web?rsvsvcid=S200105095831023248","","","2020-01-05 00:00:00.0","2020-12-31 00:00:00.0","2020-01-05 09:00:00.0","2020-12-31 18:00:00.0","성북구"
"자체","S200105102438014701","시설대관","다목적실","접수중","동선동 주민센터 - 지하1층 다목적실","유료(요금안내문의)","동선동 주민센터","제한없음","http://yeyak.seoul.go.kr/reservation/view.web?rsvsvcid=S200105102438014701","","","2020-01-05 00:00:00.0","2020-12-31 00:00:00.0","2020-01-05 09:00:00.0","2020-12-31 18:00:00.0","성북구"
"자체","S200105103613931600","시설대관","다목적실","접수중","동선동 주민센터 - 2층 회의실","유료(요금안내문의)","동선동 주민센터","제한없음","http://yeyak.seoul.go.kr/reservation/view.web?rsvsvcid=S200105103613931600","","","2020-01-05 00:00:00.0","2020-12-31 00:00:00.0","2020-01-05 09:00:00.0","2020-12-31 18:00:00.0","성북구"
"자체","S200103160852805108","시설대관","기타","접수중","성북구 장위2동 자치회관 - 3층 대강당","무료","장위2동 주민센터","제한없음","http://yeyak.seoul.go.kr/reservation/view.web?rsvsvcid=S200103160852805108","37.61239115238721","127.05449598532495","2020-01-03 00:00:00.0","2020-12-31 00:00:00.0","2020-01-03 00:00:00.0","2020-12-23 18:00:00.0","성북구"
"자체","S200109094058777327","시설대관","강당","접수중","정릉3동 자치회관 3층 대강당","무료","정릉3동 주민센터","제한없음(서울시 관련시민-상세정보 확인)","http://yeyak.seoul.go.kr/reservation/view.web?rsvsvcid=S200109094058777327","","","2020-01-09 00:00:00.0","2020-12-31 00:00:00.0","2020-01-09 00:00:00.0","2020-12-31 18:00:00.0","성북구"
"자체","S200115183233349888","시설대관","회의실","접수중","정릉3동 자치회관 2층 회의실","무료","정릉3동 주민센터","제한없음(서울시 관련시민-상세정보 확인)","http://yeyak.seoul.go.kr/reservation/view.web?rsvsvcid=S200115183233349888","","","2020-01-15 00:00:00.0","2020-12-31 00:00:00.0","2020-01-15 00:00:00.0","2020-12-31 18:00:00.0","성북구"
"자체","S200106094211743385","시설대관","강의실","접수중","성북구벤처창업지원센터 멀티미디어실","유료(요금안내문의)","성북구벤처창업지원센터","제한없음","http://yeyak.seoul.go.kr/reservation/view.web?rsvsvcid=S200106094211743385","","","2020-01-06 00:00:00.0","2020-12-31 00:00:00.0","2020-01-06 09:00:00.0","2020-12-28 18:00:00.0","성북구"
"자체","S200109095625291293","시설대관","기타","접수중","성북구 월곡1동 자치회관 - 강의실(어울림 2실)","유료(요금안내문의)","월곡1동 주민센터","제한없음(서울시 관련시민-상세정보 확인)","http://yeyak.seoul.go.kr/reservation/view.web?rsvsvcid=S200109095625291293","","","2020-01-09 00:00:00.0","2020-12-31 00:00:00.0","2020-01-09 00:00:00.0","2020-12-31 00:00:00.0","성북구"
"자체","S200109100851512908","시설대관","기타","접수중","성북구 월곡1동 자치회관 - 회의실(어울림1실)","유료(요금안내문의)","월곡1동 주민센터","제한없음","http://yeyak.seoul.go.kr/reservation/view.web?rsvsvcid=S200109100851512908","","","2020-01-09 00:00:00.0","2020-12-31 00:00:00.0","2020-01-09 00:00:00.0","2020-12-31 00:00:00.0","성북구"
"자체","S200109102655397241","시설대관","기타","접수중","성북구 월곡1동 자치회관 - 4층 대강당","유료(요금안내문의)","월곡1동 주민센터","제한없음","http://yeyak.seoul.go.kr/reservation/view.web?rsvsvcid=S200109102655397241","","","2020-01-09 00:00:00.0","2020-12-31 00:00:00.0","2020-01-09 00:00:00.0","2020-12-31 00:00:00.0","성북구"
"자체","S200103093956290007","시설대관","강당","접수중","장위3동자치회관 3층 강당","무료","장위3동주민센터","제한없음","http://yeyak.seoul.go.kr/reservation/view.web?rsvsvcid=S200103093956290007","37.616559929682886","127.0566148347725","2020-01-01 00:00:00.0","2020-12-31 00:00:00.0","2020-01-03 09:00:00.0","2020-12-31 17:59:00.0","성북구"
"자체","S200103103431742179","시설대관","회의실","접수중","장위3동자치회관 2층 회의실","무료","장위3동주민센터","제한없음","http://yeyak.seoul.go.kr/reservation/view.web?rsvsvcid=S200103103431742179","37.616559929682886","127.0566148347725","2020-01-03 00:00:00.0","2020-12-31 00:00:00.0","2020-01-03 09:00:00.0","2020-12-31 17:59:00.0","성북구"
"자체","S200103095253814411","시설대관","주민사랑방","접수중","성북구 길음2동 북카페 <여기>","무료","길음2동주민센터","제한없음","http://yeyak.seoul.go.kr/reservation/view.web?rsvsvcid=S200103095253814411","","","2020-01-03 00:00:00.0","2020-12-23 00:00:00.0","2020-01-03 09:00:00.0","2020-12-22 18:00:00.0","성북구"
"자체","S200106120021494824","시설대관","회의실","접수중","성북구 길음2동 자치회관 - 2층 소회의실 ","무료","길음2동주민센터","제한없음","http://yeyak.seoul.go.kr/reservation/view.web?rsvsvcid=S200106120021494824","","","2020-01-06 00:00:00.0","2020-12-23 00:00:00.0","2020-01-06 00:00:00.0","2020-12-21 18:00:00.0","성북구"
"자체","S200106121209661101","시설대관","강당","접수중","성북구 길음2동 자치회관 - 2층 대강당","무료","길음2동주민센터","제한없음(서울시관련시민-상세정보확인)","http://yeyak.seoul.go.kr/reservation/view.web?rsvsvcid=S200106121209661101","","","2020-01-06 00:00:00.0","2020-12-23 00:00:00.0","2020-01-06 09:00:00.0","2020-12-21 18:00:00.0","성북구"
"자체","S200106142041733120","시설대관","강당","접수중","성북구 보문동 자치회관 - 4층 강당","무료","보문동주민센터","제한없음","http://yeyak.seoul.go.kr/reservation/view.web?rsvsvcid=S200106142041733120","","","2020-01-06 00:00:00.0","2020-12-31 00:00:00.0","2020-01-06 09:00:00.0","2020-12-31 18:00:00.0","성북구"
"자체","S200106145315625682","시설대관","회의실","접수중","보문동주민센터 3층 강의실","무료","보문동주민센터","제한없음","http://yeyak.seoul.go.kr/reservation/view.web?rsvsvcid=S200106145315625682","","","2020-01-06 00:00:00.0","2020-12-31 00:00:00.0","2020-01-06 09:00:00.0","2020-12-31 18:00:00.0","성북구"
"자체","S200107094851540970","시설대관","강의실","접수중","성북구 돈암1동 주민센터 3층 강의실","유료(요금안내문의)","돈암1동 자치회관 3층 강의실","제한없음","http://yeyak.seoul.go.kr/reservation/view.web?rsvsvcid=S200107094851540970","37.603416120086585","127.0263727254979","2020-01-07 00:00:00.0","2020-12-31 00:00:00.0","2020-01-07 09:00:00.0","2020-12-31 18:00:00.0","성북구"
"자체","S200108210243596388","시설대관","전시실","접수중","성북구 성북동 자치회관 - 성북동 작은갤러리","무료","성북동 주민센터","제한없음","http://yeyak.seoul.go.kr/reservation/view.web?rsvsvcid=S200108210243596388","","","2020-02-01 00:00:00.0","2020-12-31 00:00:00.0","2020-02-01 09:00:00.0","2020-09-30 18:00:00.0","성북구"
"자체","S200108175818649310","시설대관","강의실","접수중","성북구 정릉2동 자치회관 2층 강당","무료","성북구 정릉2동주민센터","제한없음","http://yeyak.seoul.go.kr/reservation/view.web?rsvsvcid=S200108175818649310","37.60446368968277","127.01113903158435","2020-01-01 00:00:00.0","2020-12-31 00:00:00.0","2020-01-08 09:00:00.0","2020-12-31 23:59:00.0","성북구"
"자체","S200107093913857993","시설대관","강당","접수중","성북구 돈암1동 주민센터 2층 강당 ","유료(요금안내문의)","돈암1동 주민센터","제한없음","http://yeyak.seoul.go.kr/reservation/view.web?rsvsvcid=S200107093913857993","","","2020-01-07 00:00:00.0","2020-12-31 00:00:00.0","2020-01-07 09:00:00.0","2020-12-31 18:00:00.0","성북구"
"자체","S200108172412093632","시설대관","기타","접수중","성북구 정릉4동 자치회관 - 지하1층 프로그램실","무료","정릉4동 주민센터","제한없음","http://yeyak.seoul.go.kr/reservation/view.web?rsvsvcid=S200108172412093632","37.613358574680646","127.00701765550114","2020-01-08 00:00:00.0","2020-12-31 00:00:00.0","2020-01-08 00:00:00.0","2020-12-31 00:00:00.0","성북구"
"자체","S200108174307877838","시설대관","기타","접수중","성북구 정릉4동 자치회관 - 3층 강당","무료","정릉4동 주민센터","제한없음","http://yeyak.seoul.go.kr/reservation/view.web?rsvsvcid=S200108174307877838","37.613358574680646","127.00701765550114","2020-01-08 00:00:00.0","2020-12-31 00:00:00.0","2020-01-08 00:00:00.0","2020-12-31 00:00:00.0","성북구"
"자체","S200108174800021043","시설대관","기타","접수중","성북구 정릉4동 자치회관 - 2층 회의실","무료","정릉4동 주민센터","제한없음","http://yeyak.seoul.go.kr/reservation/view.web?rsvsvcid=S200108174800021043","37.613358574680646","127.00701765550114","2020-01-08 00:00:00.0","2020-12-31 00:00:00.0","2020-01-08 00:00:00.0","2020-12-31 00:00:00.0","성북구"
"자체","S200106094046029106","시설대관","강의실","접수종료","성북구 삼선동 자치회관 - 2층 회의실","무료","삼선동 주민센터","제한없음","http://yeyak.seoul.go.kr/reservation/view.web?rsvsvcid=S200106094046029106","37.5908439243","127.0146425073","2020-01-06 00:00:00.0","2020-12-31 00:00:00.0","2020-01-06 16:30:00.0","2020-01-06 18:00:00.0","성북구"
"자체","S190824175112444633","시설대관","강당","접수중","장위1동자치회관 3층 대강당","유료","장위1동 주민센터","성인제한없음","http://yeyak.seoul.go.kr/reservation/view.web?rsvsvcid=S190824175112444633","","","2020-01-01 00:00:00.0","2020-12-31 00:00:00.0","2020-01-06 09:00:00.0","2020-12-24 17:00:00.0","성북구"
"자체","S190824181103340084","시설대관","강의실","접수중","장위1동자치회관 2층 회의실","유료","장위1동 주민센터","성인제한없음","http://yeyak.seoul.go.kr/reservation/view.web?rsvsvcid=S190824181103340084","","","2020-01-01 00:00:00.0","2020-12-31 00:00:00.0","2020-01-06 09:00:00.0","2020-12-24 17:00:00.0","성북구"
"자체","S200108115515632345","시설대관","강당","접수중","성북구 석관동자치회관 - 4층 대강당","무료","석관동 주민센터","제한없음","http://yeyak.seoul.go.kr/reservation/view.web?rsvsvcid=S200108115515632345","","","2020-01-08 00:00:00.0","2020-12-31 00:00:00.0","2020-01-08 00:00:00.0","2020-12-27 23:59:00.0","성북구"
"자체","S200108155857121786","시설대관","회의실","접수중","성북구 석관동자치회관 - 2층 다목적회의실","무료","석관동 주민센터","제한없음","http://yeyak.seoul.go.kr/reservation/view.web?rsvsvcid=S200108155857121786","","","2020-01-08 00:00:00.0","2020-12-31 00:00:00.0","2020-01-08 00:00:00.0","2020-12-27 23:59:00.0","성북구"
"자체","S191226143250434507","시설대관","회의실","접수중","안암동 자치회관 4층 마을회의실","무료","안암동주민센터","제한없음","http://yeyak.seoul.go.kr/reservation/view.web?rsvsvcid=S191226143250434507","37.58581896228219","127.02137580831581","2020-01-01 00:00:00.0","2020-12-31 00:00:00.0","2019-12-26 00:00:00.0","2020-12-26 00:00:00.0","성북구"
"자체","S190109150057632148","시설대관","회의실","접수중","성북구 월곡2동 자치회관 3층 회의실","무료","월곡2동주민센터","제한없음","http://yeyak.seoul.go.kr/reservation/view.web?rsvsvcid=S190109150057632148","","","2020-01-01 00:00:00.0","2020-12-31 00:00:00.0","2020-01-01 09:00:00.0","2020-12-31 18:00:00.0","성북구"
"자체","S190109164336630511","시설대관","강당","접수중","성북구 월곡2동 자치회관 2층 대강당","무료","월곡2동주민센터","제한없음","http://yeyak.seoul.go.kr/reservation/view.web?rsvsvcid=S190109164336630511","","","2020-01-01 00:00:00.0","2020-12-31 00:00:00.0","2020-01-01 09:00:00.0","2020-12-31 18:00:00.0","성북구"
"자체","S200108191412105846","시설대관","회의실","접수중","성북구 정릉2동 자치회관 - 2층 회의실","무료","정릉2동 주민센터","제한없음","http://yeyak.seoul.go.kr/reservation/view.web?rsvsvcid=S200108191412105846","","","2020-01-02 00:00:00.0","2020-12-31 00:00:00.0","2020-01-08 09:00:00.0","2020-12-31 23:59:00.0","성북구"
"연계","SEEDFIX-739","시설대관","다목적실","접수중","청소년놀터 미음미음","무료","성북구청 청소년놀터 미음미음","일반시민","http://play.sb.go.kr/page/sub2_10","","","2020-04-07 00:00:00.0","2020-12-31 00:00:00.0","2020-04-07 00:00:00.0","2020-12-31 00:00:00.0","성북구"
"연계","SEEDFIX-742","시설대관","다목적실","접수중","청소년놀터 동행라온","무료","성북구청 청소년놀터 동행라온","일반시민","http://play.sb.go.kr/page/sub2_10","","","2020-04-07 00:00:00.0","2020-12-31 00:00:00.0","2020-04-07 00:00:00.0","2020-12-31 00:00:00.0","성북구"
"연계","SEEDFIX-738","시설대관","다목적실","접수중","청소년놀터 방과휴","무료","성북구청 청소년놀터 방과휴","일반시민","http://play.sb.go.kr/page/sub2_10","","","2020-04-07 00:00:00.0","2020-12-31 00:00:00.0","2020-04-07 00:00:00.0","2020-12-31 00:00:00.0","성북구"
"연계","SEEDFIX-737","시설대관","다목적실","접수중","청소년놀터 푸른마을","무료","성북구청 청소년놀터 푸른마을","일반시민","http://play.sb.go.kr/page/sub2_10","","","2020-04-07 00:00:00.0","2020-12-31 00:00:00.0","2020-04-07 00:00:00.0","2020-12-31 00:00:00.0","성북구"
"연계","SEEDFIX-743","시설대관","다목적실","접수중","청소년놀터 성북도담","무료","성북구청 청소년놀터 성북도담","일반시민","http://play.sb.go.kr/page/sub2_10","","","2020-04-07 00:00:00.0","2020-12-31 00:00:00.0","2020-04-07 00:00:00.0","2020-12-31 00:00:00.0","성북구"
"연계","SEEDFIX-740","시설대관","다목적실","접수중","청소년놀터 울:섬&쉼표","무료","성북구청 청소년놀터 울:섬&쉼표","일반시민","http://play.sb.go.kr/page/sub2_10","","","2020-04-07 00:00:00.0","2020-12-31 00:00:00.0","2020-04-07 00:00:00.0","2020-12-31 00:00:00.0","성북구"
"연계","SEEDFIX-741","시설대관","다목적실","접수중","청소년놀터 잠시만놀다가","무료","성북구청 청소년놀터 잠시만놀다가","일반시민","http://play.sb.go.kr/page/sub2_10","","","2020-04-07 00:00:00.0","2020-12-31 00:00:00.0","2020-04-07 00:00:00.0","2020-12-31 00:00:00.0","성북구"
"연계","SEEDFIX-744","시설대관","다목적실","접수중","성북청소년문화공유센터","무료","성북청소년문화공유센터","일반시민","http://play.sb.go.kr/page/sub2_10","","","2020-04-07 00:00:00.0","2020-12-31 00:00:00.0","2020-04-07 00:00:00.0","2020-12-31 00:00:00.0","성북구"