"서비스구분","서비스ID","대분류명","소분류명","서비스상태","서비스명","결제방법","장소명","서비스대상","바로가기URL","장소X좌표","장소Y좌표","서비스개시시작일시","서비스개시종료일시","접수시작일시","접수종료일시","지역명"
"자체","S160627131806531002","교육","체험/견학","접수종료","양천구 생활안전체험교육관 교육 신청","무료","양천구 생활안전체험교육관 ","성인가족","http://yeyak.seoul.go.kr/reservation/view.web?rsvsvcid=S160627131806531002","37.5167577848826","126.86371071234907","2016-06-27 00:00:00.0","2028-12-31 00:00:00.0","2016-06-27 00:00:00.0","2017-02-28 00:00:00.0","양천구"
"자체","S190813130331887393","교육","건강/스포츠","접수종료","2020함께서울 어린이 홈런왕 야구교실","유료(요금안내문의)","목동운동장>다목적구장","제한없음","http://yeyak.seoul.go.kr/reservation/view.web?rsvsvcid=S190813130331887393","37.530706277207706","126.88086785005444","2020-06-06 00:00:00.0","2020-06-27 00:00:00.0","2020-06-05 11:00:00.0","2020-06-05 16:00:00.0","양천구"
"연계","SEED-144582","교육","취미레저","","청소년헬스 ","유료","","초5학년~고3","http://www.ycs.or.kr/rent/lecture.php?comcd=YCS&Top=2&m=1&s=1&e=1&SportsCD=07&MclassCD=05","","","","","","","양천구"
"연계","SEED-144581","교육","취미레저","","성인헬스 ","유료","","성인남여","http://www.ycs.or.kr/rent/lecture.php?comcd=YCS&Top=2&m=1&s=1&e=1&SportsCD=07&MclassCD=05","","","","","","","양천구"